/home/selvyn/loginmanager/src/main/java/com/celestial/dbutils/MainUnit.java
/home/selvyn/loginmanager/src/main/java/com/celestial/dbutils/PropertyLoader.java
/home/selvyn/loginmanager/src/main/java/com/celestial/dbutils/DBConnector.java
/home/selvyn/loginmanager/src/main/java/com/celestial/dbutils/LoggerExample.java
/home/selvyn/loginmanager/src/main/java/com/celestial/dbutils/User.java
/home/selvyn/loginmanager/src/main/java/com/celestial/dbutils/UserHandler.java
/home/selvyn/loginmanager/src/main/java/com/celestial/loginmanager/ApplicationScopeHelper.java
/home/selvyn/loginmanager/src/main/java/com/celestial/simplemavenwebapp/TimeAndDateHandler.java
/home/selvyn/loginmanager/src/main/java/com/celestial/dbutils/UserIterator.java
